-0.127224
-0.659345
0.359348
-0.0915724
0.0757912
0.424166
0.339969
0.366644
0.619369
0.475762
-3.40282e+38
-0.0651674
0.455939
-0.205802
0.0330467
0.0301426
-0.630072
-3.40282e+38
-0.0246519
0.172051
0.276443
-3.40282e+38
0.341139
0.281011
0.417738
-0.184428
0.415232
-0.0794852
-0.146506
-0.166708
-0.163467
-0.0618215
-0.440991
0.643598
-0.278727
0.189351
-0.0776528
-0.242624
-0.1467
-0.426178
0.00300925
-0.262526
-0.0247377
-0.223382
0.188924
-0.0444831
-0.28767
0.433922
0.655613
-0.301006
-0.310904
-0.346254
0.155422
0.0386119
0.0345699
0.56696
0.440086
-0.337542
-0.566491
0.140256
0.164039
-0.257251
-0.138385
-0.233672
-0.41818
0.482209
0.635037
-0.430703
0.153371
-0.23126
0.559987
-0.539366
-0.44262
0.28188
-0.434486
0.575093
0.226268
0.0860767
0.036302
0.186816
0.62934
0.310404
0.218411
-0.198511
0.016631
0.710108
-0.150703
0.185201
-0.118133
0.0547378
0.227429
0.0799077
-0.327043
-0.0226624
0.175245
-0.20249
0.202628
-0.0799223
0.332242
-0.231877
0.0237745
-0.551961
0.195428
-0.0468319
0.537127
-0.289488
-0.0136784
-0.398548
-0.106222
-0.768714
0.0130795
-0.266076
0.413431
0.424362
-inf
-inf
-0.167401
-0.118728
0.253393
0.036323
-0.0550001
0.0615803
0.49059
-0.109175
-0.0302268
-0.227411
0.62131
-0.395835
0.25096
-0.353639
-0.417699
0.411274
-0.362657
0.0278197
0.418887
-0.150396
0.206005
0.539225
0.587034
-0.249724
-0.156196
-0.194916
-0.117908
0.273681
0.116172
0.348967
0.398201
-inf
0.0729341
-0.0947386
-0.00225977
-0.104697
-0.0675583
0.850368
0.116027
-0.135165
-0.270223
0.213134
-0.288886
-0.092746
0.368591
0.462895
0.535254
0.302383
0.473646
0.0312013
-0.0132365
-0.294853
-0.130228
0.204931
0.414526
-0.0257218
-0.351255
0.0516736
-0.0810343
0.3553
0.122359
0.056206
0.111096
0.62811
0.256919
-0.079053
0.123012
-0.102614
0.287298
-0.25177
-0.313708
0.0118703
0.554876
0.728053
-0.170434
0.110784
0.0916744
-3.40282e+38
0.515437
0.156868
-0.245329
0.0514097
0.286382
0.0969336
-0.385161
0.22531
-0.200088
0.262981
0.693736
-0.405442
0.188532
-0.0431687
-0.202824
0.144037
-0.0128868
0.0750774
0.279046
0.0134064
0.343493
0.371528
0.605286
-3.40282e+38
-0.504446
-0.021811
-0.107948
-0.223451
0.0529103
0.931086
0.24541
-inf
-inf
0.882444
-0.137752
-inf
0.143296
-0.0330726
-0.499302
-0.0428903
0.301027
-0.232374
-0.346513
-inf
0.378662
-0.131178
0.119455
-0.198222
-0.792837
-0.00285547
-0.183096
0.185309
-0.195434
-0.202634
-0.22425
-0.21264
-0.394724
0.278455
-0.231289
0.161607
0.374097
-0.25537
-0.549106
-0.386737
-0.0476785
-0.165334
-0.242784
0.636618
0.229722
0.371256
0.0786321
-0.0619413
0.0409834
0.347449
0.321708
0.137046
-0.472476
0.01492
0.0359604
0.334802
-0.284213
-0.0106659
0.0226818
-0.0402825
0.685569
0.164322
-0.199151
0.297923
0.307591
-0.241771
0.37921
-0.0443763
0.313042
0.159573
-0.1463
0.624206
0.365496
-0.00508771
0.0273034
0.080021
0.593325
0.390313
0.11045
-0.18414
0.415987
-0.0215147
-0.18825
0.153593
-0.481924
-0.348898
0.20373
-0.467919
-0.191208
0.166577
0.451314
0.0289286
-0.0602108
0.205453
-0.0556217
1.1019
0.162813
0.0350847
-0.0238927
-0.224296
0.24417
0.144455
-0.0148682
0.0801505
-0.27546
0.427472
0.138649
-0.166723
0.902856
-0.170871
0.225567
0.233939
0.566489
-0.102751
0.314134
0.105521
-0.145174
0.65384
0.362777
-0.140446
0.0896509
-0.141342
0.463307
-0.213226
0.355447
0.103603
-0.00957811
0.428121
0.143609
0.700568
0.447832
-0.0866789
0.169924
0.178157
-inf
-0.483464
-0.0379175
-0.14253
-0.112833
-0.424351
-0.00140669
-0.100338
0.2454
-0.238491
0.213255
0.246758
0.420014
0.588611
0.476808
0.487972
-0.0606624
0.0828085
-0.136255
0.299337
-0.285142
-0.311631
-0.0746387
-0.372324
-0.311594
-0.0631764
0.180432
-inf
-0.0100815
0.088186
0.376212
-0.227024
-0.442617
0.0514486
-0.418065
0.320806
-inf
-0.0311301
-0.609901
0.507271
0.0930422
-0.115248
0.210783
0.14141
0.0110852
-0.11996
0.699413
1.00437
0.161651
-0.116174
0.691876
0.397227
0.0519374
0.19582
0.0650897
0.00232775
0.220282
-0.763151
0.340862
-0.226242
0.079741
0.127092
0.485813
0.323236
0.0828975
-0.0358374
0.370832
0.804187
-0.305476
-0.225692
0.443214
0.0546197
-0.0919787
-0.0925954
-0.0777661
-0.0673786
0.159534
0.693146
-inf
-0.0388223
-0.0819878
0.0847494
-0.347578
0.19789
0.286748
0.0604617
0.326098
0.0306801
1.1503
-0.759342
0.428085
0.742133
0.362358
0.0617162
-0.18106
-0.123544
-0.0732433
0.365143
0.0544076
0.593637
-0.0402905
-0.160073
-0.0945347
-0.512629
-0.412216
0.50996
0.120786
0.487598
0.125912
0.0366387
0.327765
-0.0931393
0.130662
0.0162457
0.0831743
0.432273
0.0839691
0.440141
0.291142
-0.236204
-0.037843
0.240864
0.689919
0.4406
-0.26118
0.389404
0.0810764
-0.0619445
0.292086
0.291635
-0.085876
0.0110285
-0.021743
-0.455042
-0.440682
0.0529151
0.163832
-0.345756
0.188415
0.44817
-0.15617
0.0074527
0.10398
0.271977
0.0686348
0.300994
0.320545
0.146152
